^D:\PROJECT\C#\CONSOLEAPPLICATION1\CONSOLEAPPLICATION1\PCH.CPP
D:\PROJECT\C#\CONSOLEAPPLICATION1\CONSOLEAPPLICATION1\DEBUG\CONSOLEAPPLICATION1.PCH
D:\PROJECT\C#\CONSOLEAPPLICATION1\CONSOLEAPPLICATION1\DEBUG\VC141.PDB
D:\PROJECT\C#\CONSOLEAPPLICATION1\CONSOLEAPPLICATION1\DEBUG\VC141.IDB
D:\PROJECT\C#\CONSOLEAPPLICATION1\CONSOLEAPPLICATION1\DEBUG\PCH.OBJ
^D:\PROJECT\C#\CONSOLEAPPLICATION1\CONSOLEAPPLICATION1\CONSOLEAPPLICATION1.CPP
D:\PROJECT\C#\CONSOLEAPPLICATION1\CONSOLEAPPLICATION1\DEBUG\VC141.PDB
D:\PROJECT\C#\CONSOLEAPPLICATION1\CONSOLEAPPLICATION1\DEBUG\VC141.IDB
D:\PROJECT\C#\CONSOLEAPPLICATION1\CONSOLEAPPLICATION1\DEBUG\CONSOLEAPPLICATION1.OBJ
^D:\ЖДТУ\ООП\LAB_1\CONSOLEAPPLICATION1\CONSOLEAPPLICATION1\PCH.CPP
D:\ЖДТУ\ООП\LAB_1\CONSOLEAPPLICATION1\CONSOLEAPPLICATION1\DEBUG\CONSOLEAPPLICATION1.PCH
D:\ЖДТУ\ООП\LAB_1\CONSOLEAPPLICATION1\CONSOLEAPPLICATION1\DEBUG\VC141.PDB
D:\ЖДТУ\ООП\LAB_1\CONSOLEAPPLICATION1\CONSOLEAPPLICATION1\DEBUG\VC141.IDB
D:\ЖДТУ\ООП\LAB_1\CONSOLEAPPLICATION1\CONSOLEAPPLICATION1\DEBUG\PCH.OBJ
D:\ЖДТУ\ООП\LAB_1\CONSOLEAPPLICATION1\CONSOLEAPPLICATION1\DEBUG\VC142.PDB
D:\ЖДТУ\ООП\LAB_1\CONSOLEAPPLICATION1\CONSOLEAPPLICATION1\DEBUG\VC142.IDB
^D:\ЖДТУ\ООП\LAB_1\CONSOLEAPPLICATION1\CONSOLEAPPLICATION1\CONSOLEAPPLICATION1.CPP
D:\ЖДТУ\ООП\LAB_1\CONSOLEAPPLICATION1\CONSOLEAPPLICATION1\DEBUG\VC142.PDB
D:\ЖДТУ\ООП\LAB_1\CONSOLEAPPLICATION1\CONSOLEAPPLICATION1\DEBUG\VC142.IDB
D:\ЖДТУ\ООП\LAB_1\CONSOLEAPPLICATION1\CONSOLEAPPLICATION1\DEBUG\CONSOLEAPPLICATION1.OBJ
